The Doomed Product Detector: Which Cannabis SKUs Are About to Disappear? – The Evergreen Canna Ledger
…
Shelf‑Staleness Indicator

Measure time since last sale:

# A tibble: 675,918 × 4
# Groups:   ProductId [675,811]
   ProductId Name                                     last_sale  days_since_sale
   <chr>     <chr>                                    <date>               <dbl>
 1 10001943  NWC-CA-19230Mimosa 1g Cart               2025-08-04              91
 2 10009653  SD IPR Redtailed .75g                    2025-08-04              91
 3 10022409  Watermelon Punch - 1g - Flavored Cartri… 2025-08-04              91
 4 10023570  Indica - 1g - RSO - From The Soil        2025-08-04              91
 5 10030585  Flower Mini - Gelato 33 - 28g            2025-08-04              91
 6 10030588  Flower Mini - Gelato X Dosido - 14g      2025-08-04              91
 7 10033211  Sticky Frog BHO Triangle Kush 1g         2025-08-04              91
 8 10064786  7g MAC 10 Flower Greenrush               2025-08-04              91
 9 10113823  Cinnamon Mints 100mg - Double Delights   2025-08-04              91
10 10129323  Mind Bender Pre-Roll  (1g) - Blue Dream… 2025-08-04              91
# ℹ 675,908 more rows
…
